 e  time type  Q  B in queue            in service  P  N  ΣWQ   WQ*   ΣTS   TS*   ∫Q    Q* ∫B
 -  0.00 init  0  0 []                         -    0  0  0.00  0.00  0.00  0.00  0.00  0  0.00
 1  0.00 arr   0  0 []                        0.00  0  0  0.00  0.00  0.00  0.00  0.00  0  0.00
 1  1.73 arr   1  1 [1.73]                    0.00  0  1  0.00  0.00  0.00  0.00  0.00  1  1.73
 2  2.90 dep   0  1 []                        1.73  1  1  0.00  0.00  2.90  2.90  1.17  1  2.90
 2  3.08 arr   1  1 [3.08]                    1.73  1  2  1.17  1.17  2.90  2.90  1.17  1  3.08
 2  3.79 arr   2  1 [3.79, 3.08]              1.73  1  3  1.17  1.17  2.90  2.90  1.88  2  3.79
 2  4.41 arr   3  1 [4.41, 3.79, 3.08]        1.73  1  4  1.17  1.17  2.90  2.90  3.12  3  4.41
 5  4.66 dep   2  1 [4.41, 3.79]              3.08  2  4  1.17  1.17  5.83  2.93  3.87  3  4.66
 5  8.05 dep   1  1 [4.41]                    3.79  3  4  2.75  1.58 10.80  4.97 10.65  3  8.05
 - 10.00 end   1  1 [4.41]                    3.79  3  4  7.01  4.26 10.80  4.97 12.60  3 10.00
